[gd_scene load_steps=4 format=2]

[ext_resource path="res://models/Character/CharacterModel.gd" type="Script" id=1]

[sub_resource type="RectangleShape2D" id=1]
extents = Vector2( 10, 19.5424 )

[sub_resource type="OccluderPolygon2D" id=2]
polygon = PoolVector2Array( -7.3803, -16.1137, -0.00581741, -18.4548, 7.77836, -16.2892, 8.65628, 15.2572, 5.61284, 19.6467, -5.21478, 19.6467, -8.55086, 15.7254 )

[node name="Character" type="KinematicBody2D"]
collision_layer = 2
collision_mask = 7
script = ExtResource( 1 )

[node name="CollisionShape2D" type="CollisionShape2D" parent="."]
shape = SubResource( 1 )
__meta__ = {
"_edit_lock_": true
}

[node name="LightOccluder2D" type="LightOccluder2D" parent="."]
show_behind_parent = true
light_mask = 3
z_index = -2
occluder = SubResource( 2 )
light_mask = 3
