[gd_resource type="Gradient" format=2]

[resource]
offsets = PoolRealArray( 0.0848329, 0.172237, 0.498715, 1 )
colors = PoolColorArray( 0, 0, 0, 1, 0, 0, 0, 1, 0.332268, 0.332268, 0.332268, 1, 1, 1, 1, 1 )
