[gd_scene load_steps=5 format=2]

[ext_resource path="res://assets/Fonts/TitleFont.tres" type="DynamicFont" id=1]
[ext_resource path="res://assets/Fonts/MainFontData.tres" type="DynamicFontData" id=2]
[ext_resource path="res://menus/GameOver/Restart.gd" type="Script" id=3]


[sub_resource type="DynamicFont" id=1]
size = 24
font_data = ExtResource( 2 )

[node name="GameOver" type="Control"]
margin_left = 520.0
margin_top = 60.0
margin_right = 560.0
margin_bottom = 100.0

[node name="Text" type="Label" parent="."]
margin_left = -220.0
margin_top = 180.0
margin_right = 212.0
margin_bottom = 276.0
custom_fonts/font = ExtResource( 1 )
text = "GAME OVER"
align = 1
valign = 1

[node name="Restart" type="Button" parent="."]
margin_left = -100.0
margin_top = 280.0
margin_right = 112.0
margin_bottom = 340.0
custom_fonts/font = SubResource( 1 )
text = "RETRY"
script = ExtResource( 3 )
[connection signal="pressed" from="Restart" to="Restart" method="_on_Restart_pressed"]
