[gd_scene load_steps=5 format=2]

[ext_resource path="res://menus/Options/Box.gd" type="Script" id=1]
[ext_resource path="res://assets/Textures/Box.png" type="Texture" id=2]

[sub_resource type="RectangleShape2D" id=1]
extents = Vector2( 60, 60 )

[sub_resource type="OccluderPolygon2D" id=2]
polygon = PoolVector2Array( -30.0001, -29.9999, -29.9998, 30.0001, 30.0002, 29.9998, 29.9999, -30.0002 )

[node name="Box" type="RigidBody2D"]
position = Vector2( 320, 390 )
rotation = -3.14159
z_index = 10
input_pickable = true
mass = 3.0
script = ExtResource( 1 )

[node name="CollisionShape" type="CollisionShape2D" parent="."]
position = Vector2( -3.05176e-05, 0 )
scale = Vector2( 0.5, 0.5 )
shape = SubResource( 1 )

[node name="Sprite" type="Sprite" parent="CollisionShape"]
position = Vector2( -0.00012207, -0.000366211 )
scale = Vector2( 1.05, 1.05 )
texture = ExtResource( 2 )

[node name="LightOccluder2D" type="LightOccluder2D" parent="CollisionShape/Sprite"]
position = Vector2( 0.000183105, 0.000366211 )
scale = Vector2( 1.90476, 1.90476 )
occluder = SubResource( 2 )
[connection signal="input_event" from="." to="." method="_on_Box_input_event"]
